{
  "files": {
    "main.css": "/static/css/main.2c9331f9.chunk.css",
    "main.js": "/static/js/main.23d8776a.chunk.js",
    "main.js.map": "/static/js/main.23d8776a.chunk.js.map",
    "runtime-main.js": "/static/js/runtime-main.e4aa6484.js",
    "runtime-main.js.map": "/static/js/runtime-main.e4aa6484.js.map",
    "static/js/2.16915435.chunk.js": "/static/js/2.16915435.chunk.js",
    "static/js/2.16915435.chunk.js.map": "/static/js/2.16915435.chunk.js.map",
    "index.html": "/index.html",
    "static/css/main.2c9331f9.chunk.css.map": "/static/css/main.2c9331f9.chunk.css.map",
    "static/js/2.16915435.chunk.js.LICENSE.txt": "/static/js/2.16915435.chunk.js.LICENSE.txt"
  },
  "entrypoints": [
    "static/js/runtime-main.e4aa6484.js",
    "static/js/2.16915435.chunk.js",
    "static/css/main.2c9331f9.chunk.css",
    "static/js/main.23d8776a.chunk.js"
  ]
}